%YAML 1.1
%TAG !u! tag:unity3d.com,2011:
--- !u!1045 &1
EditorBuildSettings:
  m_ObjectHideFlags: 0
  serializedVersion: 2
  m_Scenes:
  - enabled: 0
    path: 
    guid: 00000000000000000000000000000000
  - enabled: 1
    path: Assets/Scenes/menu.unity
    guid: cb975f8af7eac66459aa435be68cf45b
  - enabled: 1
    path: Assets/Scenes/main.unity
    guid: 79b60e1af1a02234ba15196533128912
  m_configObjects: {}
